^C:\DOCUMENTS AND SETTINGS\Администратор\Рабочий стол\TERM\FRMBLOCK.RESX
^C:\DOCUMENTS AND SETTINGS\Администратор\Рабочий стол\TERM\FRMCHECKCODE.RESX
^C:\DOCUMENTS AND SETTINGS\Администратор\Рабочий стол\TERM\FRMINKASS.RESX
^C:\DOCUMENTS AND SETTINGS\Администратор\Рабочий стол\TERM\FRMLOGIN.RESX
^C:\DOCUMENTS AND SETTINGS\Администратор\Рабочий стол\TERM\FRMGROUP.RESX
^C:\DOCUMENTS AND SETTINGS\Администратор\Рабочий стол\TERM\MY PROJECT\RESOURCES.RESX
C:\WINDOWS\ASSEMBLY\PUBPOL13.DAT
C:\WINDOWS\MICROSOFT.NET\ASSEMBLY\GAC_MSIL\MICROSOFT.BUILD.TASKS.V4.0\V4.0_4.0.0.0__B03F5F7F11D50A3A\MICROSOFT.BUILD.TASKS.V4.0.DLL
C:\DOCUMENTS AND SETTINGS\Администратор\Рабочий стол\TERM\RESOURCES\NUMBER.PNG
C:\DOCUMENTS AND SETTINGS\Администратор\Рабочий стол\TERM\RESOURCES\SUMM.PNG
C:\DOCUMENTS AND SETTINGS\Администратор\Рабочий стол\TERM\RESOURCES\NUMBER_SELECTED.PNG
C:\DOCUMENTS AND SETTINGS\Администратор\Рабочий стол\TERM\RESOURCES\NUMBER_SELECTED1.PNG
C:\DOCUMENTS AND SETTINGS\Администратор\Рабочий стол\TERM\RESOURCES\PANEL.PNG
^C:\DOCUMENTS AND SETTINGS\Администратор\Рабочий стол\TERM\FRMPAY.RESX
^C:\DOCUMENTS AND SETTINGS\Администратор\Рабочий стол\TERM\FRMSERVICE.RESX
C:\WINDOWS\ASSEMBLY\PUBPOL13.DAT
C:\WINDOWS\MICROSOFT.NET\ASSEMBLY\GAC_MSIL\MICROSOFT.BUILD.TASKS.V4.0\V4.0_4.0.0.0__B03F5F7F11D50A3A\MICROSOFT.BUILD.TASKS.V4.0.DLL
^C:\DOCUMENTS AND SETTINGS\Администратор\Рабочий стол\TERM\FRMCHEK.RESX
^C:\DOCUMENTS AND SETTINGS\Администратор\Рабочий стол\TERM\FRMMAIN.RESX
^C:\DOCUMENTS AND SETTINGS\Администратор\Рабочий стол\TERMINAL\VERSION 4\3.62\TERM\FRMBLOCK.RESX
^C:\DOCUMENTS AND SETTINGS\Администратор\Рабочий стол\TERMINAL\VERSION 4\3.62\TERM\FRMCHECKCODE.RESX
^C:\DOCUMENTS AND SETTINGS\Администратор\Рабочий стол\TERMINAL\VERSION 4\3.62\TERM\FRMCHEK.RESX
^C:\DOCUMENTS AND SETTINGS\Администратор\Рабочий стол\TERMINAL\VERSION 4\3.62\TERM\FRMGROUP.RESX
^C:\DOCUMENTS AND SETTINGS\Администратор\Рабочий стол\TERMINAL\VERSION 4\3.62\TERM\FRMINKASS.RESX
^C:\DOCUMENTS AND SETTINGS\Администратор\Рабочий стол\TERMINAL\VERSION 4\3.62\TERM\FRMLOGIN.RESX
^C:\DOCUMENTS AND SETTINGS\Администратор\Рабочий стол\TERMINAL\VERSION 4\3.62\TERM\FRMMAIN.RESX
^C:\DOCUMENTS AND SETTINGS\Администратор\Рабочий стол\TERMINAL\VERSION 4\3.62\TERM\FRMSERVICE.RESX
C:\WINDOWS\ASSEMBLY\PUBPOL13.DAT
C:\WINDOWS\MICROSOFT.NET\ASSEMBLY\GAC_MSIL\MICROSOFT.BUILD.TASKS.V4.0\V4.0_4.0.0.0__B03F5F7F11D50A3A\MICROSOFT.BUILD.TASKS.V4.0.DLL
^C:\DOCUMENTS AND SETTINGS\Администратор\Рабочий стол\TERMINAL\VERSION 4\3.62\TERM\MY PROJECT\RESOURCES.RESX
C:\DOCUMENTS AND SETTINGS\Администратор\Рабочий стол\TERMINAL\VERSION 4\3.62\TERM\RESOURCES\NUMBER.PNG
C:\DOCUMENTS AND SETTINGS\Администратор\Рабочий стол\TERMINAL\VERSION 4\3.62\TERM\RESOURCES\SUMM.PNG
C:\DOCUMENTS AND SETTINGS\Администратор\Рабочий стол\TERMINAL\VERSION 4\3.62\TERM\RESOURCES\NUMBER_SELECTED1.PNG
C:\DOCUMENTS AND SETTINGS\Администратор\Рабочий стол\TERMINAL\VERSION 4\3.62\TERM\RESOURCES\NUMBER_SELECTED.PNG
C:\DOCUMENTS AND SETTINGS\Администратор\Рабочий стол\TERMINAL\VERSION 4\3.62\TERM\RESOURCES\PANEL.PNG
^C:\DOCUMENTS AND SETTINGS\Администратор\Рабочий стол\TERMINAL\VERSION 4\3.62\TERM\FRMPAY.RESX
^C:\DOCUMENTS AND SETTINGS\Администратор\Рабочий стол\TERMINAL\VERSION 4\3.62_MYSQL(ANT)\TERM\FRMBLOCK.RESX
^C:\DOCUMENTS AND SETTINGS\Администратор\Рабочий стол\TERMINAL\VERSION 4\3.62_MYSQL(ANT)\TERM\FRMCHECKCODE.RESX
^C:\DOCUMENTS AND SETTINGS\Администратор\Рабочий стол\TERMINAL\VERSION 4\3.62_MYSQL(ANT)\TERM\FRMCHEK.RESX
^C:\DOCUMENTS AND SETTINGS\Администратор\Рабочий стол\TERMINAL\VERSION 4\3.62_MYSQL(ANT)\TERM\FRMGROUP.RESX
^C:\DOCUMENTS AND SETTINGS\Администратор\Рабочий стол\TERMINAL\VERSION 4\3.62_MYSQL(ANT)\TERM\FRMINKASS.RESX
^C:\DOCUMENTS AND SETTINGS\Администратор\Рабочий стол\TERMINAL\VERSION 4\3.62_MYSQL(ANT)\TERM\FRMLOGIN.RESX
^C:\DOCUMENTS AND SETTINGS\Администратор\Рабочий стол\TERMINAL\VERSION 4\3.62_MYSQL(ANT)\TERM\FRMMAIN.RESX
^C:\DOCUMENTS AND SETTINGS\Администратор\Рабочий стол\TERMINAL\VERSION 4\3.62_MYSQL(ANT)\TERM\FRMPAY.RESX
^C:\DOCUMENTS AND SETTINGS\Администратор\Рабочий стол\TERMINAL\VERSION 4\3.62_MYSQL(ANT)\TERM\MY PROJECT\RESOURCES.RESX
C:\DOCUMENTS AND SETTINGS\Администратор\Рабочий стол\TERMINAL\VERSION 4\3.62_MYSQL(ANT)\TERM\RESOURCES\NUMBER.PNG
C:\DOCUMENTS AND SETTINGS\Администратор\Рабочий стол\TERMINAL\VERSION 4\3.62_MYSQL(ANT)\TERM\RESOURCES\SUMM.PNG
C:\DOCUMENTS AND SETTINGS\Администратор\Рабочий стол\TERMINAL\VERSION 4\3.62_MYSQL(ANT)\TERM\RESOURCES\NUMBER_SELECTED1.PNG
C:\DOCUMENTS AND SETTINGS\Администратор\Рабочий стол\TERMINAL\VERSION 4\3.62_MYSQL(ANT)\TERM\RESOURCES\NUMBER_SELECTED.PNG
C:\DOCUMENTS AND SETTINGS\Администратор\Рабочий стол\TERMINAL\VERSION 4\3.62_MYSQL(ANT)\TERM\RESOURCES\PANEL.PNG
^C:\DOCUMENTS AND SETTINGS\Администратор\Рабочий стол\TERMINAL\VERSION 4\3.62_MYSQL(ANT)\TERM\FRMSERVICE.RESX
C:\WINDOWS\ASSEMBLY\PUBPOL13.DAT
